(module WF142V-508-2 (layer F.Cu) (tedit 5E2968A1)
  (fp_text reference REF** (at 0 -25.3) (layer F.SilkS)
    (effects (font (size 1 1) (thickness 0.15)))
  )
  (fp_text value WF142V-508-2 (at 0 -26.3) (layer F.Fab)
    (effects (font (size 1 1) (thickness 0.15)))
  )
  (fp_line (start 8.41 1.5) (end -1.75 1.5) (layer F.SilkS) (width 0.12))
  (fp_line (start -1.75 -11.275) (end 1.25 -11.275) (layer F.SilkS) (width 0.12))
  (fp_line (start 1.25 -11.275) (end 1.25 -10.275) (layer F.SilkS) (width 0.12))
  (fp_line (start 1.25 -10.275) (end -1.75 -10.275) (layer F.SilkS) (width 0.12))
  (fp_line (start -1.75 1.5) (end -1.75 -12.15) (layer F.SilkS) (width 0.12))
  (fp_line (start 3.33 1.5) (end 3.33 -12.15) (layer F.SilkS) (width 0.12))
  (fp_line (start 8.41 1.5) (end 8.41 -12.15) (layer F.SilkS) (width 0.12))
  (fp_line (start -1.75 -12.15) (end 8.41 -12.15) (layer F.SilkS) (width 0.12))
  (fp_line (start 6.33 -11.275) (end 6.33 -10.275) (layer F.SilkS) (width 0.12))
  (fp_line (start 6.33 -10.275) (end 3.33 -10.275) (layer F.SilkS) (width 0.12))
  (fp_line (start 3.33 -11.275) (end 6.33 -11.275) (layer F.SilkS) (width 0.12))
  (fp_line (start 8.41 -12.15) (end 8.41 -9.25) (layer F.SilkS) (width 0.12))
  (fp_line (start 8.41 -9.1) (end 10.95 -9.1) (layer F.SilkS) (width 0.12))
  (fp_line (start 8.41 1.5) (end 10.95 1.5) (layer F.SilkS) (width 0.12))
  (fp_line (start 10.95 -9.1) (end 10.95 1.5) (layer F.SilkS) (width 0.12))
  (fp_line (start -1.75 1.5) (end -1.75 -9.1) (layer F.SilkS) (width 0.12))
  (fp_line (start -1.75 -9.1) (end 8.4 -9.1) (layer F.SilkS) (width 0.12))
  (pad 1 thru_hole oval (at 0 0) (size 2 3) (drill 1.4) (layers *.Cu *.Mask))
  (pad 1 thru_hole oval (at 0 -7.62) (size 2 3) (drill 1.4) (layers *.Cu *.Mask))
  (pad 2 thru_hole oval (at 5.08 -7.62) (size 2 3) (drill 1.4) (layers *.Cu *.Mask))
  (pad 2 thru_hole oval (at 5.08 0) (size 2 3) (drill 1.4) (layers *.Cu *.Mask))
)
